# 3ds Max Wavefront OBJ Exporter v0.97b - (c)2007 guruware
# File Created: 17.01.2020 04:48:21

#
# object Box001
#

v  18.8000 113.2737 28.5847
v  31.0919 108.9089 33.6195
v  38.2154 116.7512 18.3202
v  19.8581 121.2164 16.9559
v  44.3739 98.0430 36.1044
v  52.0451 104.2830 19.6845
v  40.2111 120.0130 -0.0000
v  20.5462 125.1681 -0.0000
v  54.7177 106.2410 -0.0000
v  53.9536 83.8618 33.6195
v  58.9409 72.5668 28.5847
v  65.1874 71.5543 16.9559
v  60.9362 88.0062 18.3202
v  68.2016 70.9179 -0.0000
v  63.8790 88.5529 -0.0000
v  58.9409 72.5668 -28.5847
v  53.9536 83.8618 -33.6195
v  60.9362 88.0062 -18.3202
v  65.1874 71.5543 -16.9559
v  44.3739 98.0430 -36.1044
v  52.0451 104.2830 -19.6845
v  31.0919 108.9089 -33.6195
v  18.8000 113.2737 -28.5847
v  19.8581 121.2164 -16.9559
v  38.2154 116.7512 -18.3202
v  45.7011 73.4397 42.8770
v  56.6070 62.6546 33.6195
v  32.7511 86.4599 45.9953
v  37.4053 60.1118 45.9953
v  51.1995 51.2047 36.1044
v  20.8687 70.7897 49.3086
v  5.3226 106.1401 33.6195
v  18.0040 97.4269 42.8770
v  -9.4620 90.3747 36.1044
v  4.3321 81.4676 45.9953
v  64.2640 57.3631 -18.3202
v  56.6070 62.6546 -33.6195
v  67.2030 55.9864 -0.0000
v  59.5087 45.8393 -19.6845
v  51.1995 51.2047 -36.1044
v  62.2921 44.0420 -0.0000
v  64.2640 57.3631 18.3202
v  59.5087 45.8393 19.6845
v  18.0040 97.4269 -42.8770
v  5.3226 106.1401 -33.6195
v  32.7511 86.4599 -45.9953
v  4.3321 81.4676 -45.9953
v  -9.4620 90.3747 -36.1044
v  20.8687 70.7897 -49.3086
v  45.7011 73.4397 -42.8770
v  37.4053 60.1118 -45.9953
v  -0.5589 113.5035 18.3202
v  -1.7009 116.9334 -0.0000
v  -17.7712 95.7401 19.6845
v  -20.5546 97.5374 -0.0000
v  -0.5589 113.5035 -18.3202
v  -17.7712 95.7401 -19.6845
v  16.3792 78.0262 6.9780
v  19.0043 76.2251 8.8896
v  22.0965 74.0658 9.5299
v  25.1965 71.9066 8.8896
v  27.8405 70.1054 6.9780
v  29.5506 69.0204 3.8044
v  30.2507 68.6570 -0.0000
v  29.7991 69.0204 -3.8044
v  28.2288 70.1054 -6.9780
v  25.5726 71.9066 -8.8896
v  22.3444 74.0658 -9.5299
v  18.9959 76.2251 -8.8896
v  16.1856 78.0262 -6.9780
v  14.5721 79.1112 -3.8044
v  14.0999 79.4746 -0.0000
v  14.7057 79.1112 3.8044
v  19.3552 -0.0000 -0.3817
v  19.4452 -0.0000 -11.0944
v  21.0153 11.1436 -10.8987
v  20.7166 11.1740 -0.8629
v  16.7185 -0.0000 -19.8252
v  18.4268 11.4008 -19.6204
v  19.8818 22.7227 -18.6675
v  22.3349 22.1973 -10.2724
v  21.1315 22.2451 -1.0788
v  10.2426 -0.0000 -24.5317
v  11.8178 12.0606 -25.2362
v  1.7791 -0.0000 -25.0466
v  3.1018 12.8988 -26.7279
v  5.1269 25.6800 -26.5400
v  13.5756 24.0306 -24.6131
v  -7.2049 -0.0000 -21.3880
v  -6.0910 13.6915 -23.0644
v  -15.7424 -0.0000 -14.9130
v  -14.4617 14.3607 -16.1164
v  -11.4602 28.4958 -16.0914
v  -3.6615 27.2297 -23.0077
v  -22.0904 -0.0000 -7.3785
v  -19.8939 14.8285 -8.0206
v  -24.0559 -0.0000 0.0695
v  -21.1768 15.0121 0.1489
v  -16.9403 29.5830 0.2169
v  -16.0784 29.2946 -8.0657
v  -20.6277 -0.0000 7.8276
v  -18.2790 14.8285 7.9841
v  -14.0795 -0.0000 14.7581
v  -12.6397 14.3785 14.6493
v  -11.2626 28.5644 14.5821
v  -14.8842 29.3181 8.1319
v  -6.8266 -0.0000 19.0862
v  -5.9437 13.7626 18.4936
v  0.4666 -0.0000 20.9521
v  0.9552 13.0639 19.6687
v  -0.4851 26.0001 18.7061
v  -6.3426 27.3862 18.0492
v  7.4631 -0.0000 21.1351
v  7.7435 12.3652 18.9579
v  13.4399 -0.0000 18.1423
v  13.8472 11.7688 15.5795
v  12.3320 23.4443 13.6155
v  5.9663 24.6225 17.2953
v  17.3807 -0.0000 10.1173
v  18.2379 11.3771 8.4823
v  17.4807 22.6562 7.2436
v  21.6729 33.2850 -9.2744
v  20.3264 33.1727 -0.9201
v  19.1376 34.2109 -17.1637
v  19.5596 45.6666 -14.5164
v  22.1772 44.2381 -7.6876
v  21.6772 43.8195 -0.5270
v  13.2359 36.0505 -22.8881
v  5.7322 38.2946 -24.5312
v  7.5070 50.6323 -21.2644
v  14.1254 47.9504 -19.6395
v  -1.9642 40.4339 -20.8681
v  -8.6151 42.2120 -14.2013
v  -5.2870 55.5022 -12.5012
v  0.6633 53.2549 -18.0701
v  -12.5245 43.3726 -7.0689
v  -13.6511 43.8335 0.1078
v  -10.6777 57.7314 -0.1851
v  -9.0719 57.0582 -6.5852
v  -12.6290 43.5127 7.4279
v  -10.0413 42.4620 13.5809
v  -7.8245 55.9463 12.3613
v  -10.1341 57.3307 6.5912
v  -6.1276 40.7331 16.9152
v  -1.2972 38.6904 17.6353
v  0.6747 50.9937 16.5103
v  -4.0523 53.6684 15.6299
v  4.2832 36.6983 16.1706
v  10.5054 34.9838 12.4981
v  12.2331 46.1932 11.7129
v  6.1494 48.4189 15.1910
v  16.2051 33.7738 6.5616
v  17.9215 44.5657 6.1585
v  27.8574 54.6106 -7.3314
v  28.0604 53.9570 -0.4435
v  24.8281 56.4692 -13.4719
v  33.1851 66.5178 -13.2719
v  36.2682 64.3036 -7.3314
v  37.4115 63.4857 -0.3717
v  19.5695 59.2665 -17.9740
v  13.2637 62.5253 -19.6636
v  22.6579 73.8502 -18.5496
v  28.4515 69.8886 -17.1739
v  6.6966 65.7683 -17.3669
v  0.9968 68.5346 -12.5613
v  11.4287 81.1637 -12.8775
v  16.5845 77.8370 -16.9110
v  -2.5703 70.3635 -6.7244
v  -3.8724 71.0950 -0.2199
v  7.5188 83.7871 -0.3060
v  8.4132 83.1452 -7.0685
v  -2.9154 70.5694 6.5880
v  -0.1209 68.8653 12.3804
v  11.9732 81.0884 12.5285
v  8.6895 83.0950 6.5880
v  4.0991 66.0613 15.8379
v  9.1956 62.7485 16.9113
v  22.4662 73.8377 17.8719
v  16.9421 77.7868 16.4305
v  14.7684 59.5177 15.5509
v  20.3844 56.7370 11.9498
v  32.7264 66.5178 12.5285
v  27.8822 69.8886 16.4305
v  25.1851 54.7747 6.3010
v  36.1138 64.3036 6.5880
# 185 vertices

vn -0.0864 0.7764 0.6243
vn 0.2000 0.6919 0.6938
vn 0.4166 0.8280 0.3752
vn -0.0589 0.9229 0.3805
vn 0.5200 0.4799 0.7066
vn 0.7352 0.5816 0.3481
vn 0.4875 0.8731 -0.0000
vn -0.0399 0.9992 -0.0000
vn 0.7994 0.6007 -0.0000
vn 0.7470 0.2416 0.6193
vn 0.8584 0.1081 0.5015
vn 0.9464 0.0913 0.3099
vn 0.8909 0.3312 0.3107
vn 0.9967 0.0818 -0.0000
vn 0.9369 0.3495 -0.0000
vn 0.8584 0.1081 -0.5015
vn 0.7470 0.2416 -0.6193
vn 0.8909 0.3312 -0.3107
vn 0.9464 0.0913 -0.3099
vn 0.5200 0.4799 -0.7066
vn 0.7352 0.5816 -0.3481
vn 0.2000 0.6919 -0.6938
vn -0.0864 0.7764 -0.6243
vn -0.0589 0.9229 -0.3805
vn 0.4166 0.8280 -0.3752
vn 0.5081 0.0788 0.8577
vn 0.7720 -0.0640 0.6324
vn 0.2232 0.2685 0.9370
vn -0.1148 -0.6683 0.7349
vn 0.1507 -0.8062 0.5721
vn -0.3518 -0.5327 0.7697
vn -0.3377 0.6548 0.6761
vn -0.0675 0.4659 0.8823
vn -0.8049 -0.2042 0.5572
vn -0.5731 -0.3775 0.7274
vn 0.9264 -0.1880 -0.3264
vn 0.7720 -0.0640 -0.6324
vn 0.9732 -0.2300 -0.0000
vn 0.2839 -0.9181 -0.2764
vn 0.1489 -0.8073 -0.5711
vn 0.3092 -0.9510 -0.0000
vn 0.9264 -0.1880 0.3264
vn 0.2854 -0.9176 0.2768
vn -0.0675 0.4659 -0.8823
vn -0.3377 0.6548 -0.6761
vn 0.2232 0.2685 -0.9370
vn -0.5730 -0.3774 -0.7274
vn -0.8048 -0.2033 -0.5576
vn -0.3524 -0.5337 -0.7688
vn 0.5081 0.0788 -0.8577
vn -0.1162 -0.6696 -0.7336
vn -0.5028 0.7894 0.3523
vn -0.5400 0.8417 -0.0000
vn -0.9548 -0.1246 0.2697
vn -0.9942 -0.1074 -0.0000
vn -0.5028 0.7894 -0.3523
vn -0.9549 -0.1240 -0.2699
vn -0.4954 -0.8656 -0.0726
vn -0.5382 -0.8375 -0.0945
vn -0.5698 -0.8174 -0.0849
vn -0.5854 -0.8082 -0.0643
vn -0.5907 -0.8054 -0.0489
vn -0.5980 -0.8005 -0.0404
vn -0.6091 -0.7928 -0.0201
vn -0.6110 -0.7915 0.0124
vn -0.5999 -0.7988 0.0453
vn -0.5783 -0.8125 0.0738
vn -0.5468 -0.8326 0.0889
vn -0.5147 -0.8534 0.0828
vn -0.4916 -0.8684 0.0648
vn -0.4727 -0.8803 0.0409
vn -0.4622 -0.8867 0.0079
vn -0.4673 -0.8836 -0.0304
vn 0.9882 -0.1161 0.0994
vn 0.9795 -0.1354 -0.1490
vn 0.9837 -0.1230 -0.1314
vn 0.9869 -0.0741 0.1432
vn 0.7953 -0.1085 -0.5964
vn 0.8301 -0.0871 -0.5508
vn 0.8571 0.0250 -0.5146
vn 0.9966 -0.0253 -0.0784
vn 0.9640 0.0175 0.2653
vn 0.3187 -0.0967 -0.9429
vn 0.4131 -0.0598 -0.9087
vn -0.1784 -0.1092 -0.9779
vn -0.1121 -0.0416 -0.9928
vn -0.0516 0.0924 -0.9944
vn 0.4865 0.0557 -0.8719
vn -0.5034 -0.0646 -0.8617
vn -0.5106 0.0160 -0.8596
vn -0.6949 0.0017 -0.7191
vn -0.7371 0.0829 -0.6707
vn -0.7428 0.2001 -0.6389
vn -0.4966 0.1478 -0.8553
vn -0.8883 0.1123 -0.4453
vn -0.9138 0.1781 -0.3649
vn -0.9795 0.1875 0.0736
vn -0.9681 0.2315 0.0960
vn -0.9650 0.2518 0.0734
vn -0.9157 0.2470 -0.3168
vn -0.8317 0.1260 0.5407
vn -0.8503 0.1614 0.5009
vn -0.6290 0.0689 0.7743
vn -0.6355 0.0674 0.7692
vn -0.7272 0.0942 0.6799
vn -0.9055 0.1853 0.3817
vn -0.3869 0.0644 0.9199
vn -0.3299 0.0417 0.9431
vn -0.1388 0.1020 0.9851
vn -0.0171 0.0862 0.9961
vn 0.0671 0.0840 0.9942
vn -0.3459 0.0523 0.9368
vn 0.2058 0.1652 0.9646
vn 0.3205 0.1659 0.9326
vn 0.6791 0.1337 0.7218
vn 0.6973 0.1658 0.6974
vn 0.6589 0.1924 0.7272
vn 0.3838 0.1593 0.9096
vn 0.9442 -0.0239 0.3285
vn 0.9199 0.0445 0.3897
vn 0.8539 0.1209 0.5062
vn 0.9968 0.0179 -0.0777
vn 0.9440 -0.0310 0.3286
vn 0.8499 0.1060 -0.5162
vn 0.8075 -0.1035 -0.5807
vn 0.9529 -0.2509 -0.1706
vn 0.8994 -0.3293 0.2876
vn 0.4932 0.1625 -0.8546
vn -0.0658 0.2085 -0.9758
vn -0.0500 0.2117 -0.9761
vn 0.4804 0.0610 -0.8749
vn -0.5183 0.2411 -0.8205
vn -0.7499 0.2525 -0.6115
vn -0.6933 0.2922 -0.6587
vn -0.4782 0.2771 -0.8334
vn -0.9094 0.2471 -0.3346
vn -0.9762 0.2168 -0.0097
vn -0.9388 0.3339 -0.0847
vn -0.8524 0.3174 -0.4155
vn -0.9443 0.1758 0.2781
vn -0.7782 0.1479 0.6103
vn -0.7355 0.2940 0.6104
vn -0.9095 0.3299 0.2527
vn -0.3837 0.1138 0.9164
vn 0.0706 0.0799 0.9943
vn 0.0138 0.0294 0.9995
vn -0.3785 0.1816 0.9076
vn 0.3949 0.0788 0.9153
vn 0.6227 0.0702 0.7793
vn 0.5342 -0.2044 0.8203
vn 0.3135 -0.1019 0.9441
vn 0.8031 0.0150 0.5956
vn 0.7252 -0.2878 0.6256
vn 0.7842 -0.5438 -0.2991
vn 0.7724 -0.6161 0.1546
vn 0.6425 -0.3764 -0.6675
vn 0.5613 -0.4530 -0.6927
vn 0.7018 -0.6090 -0.3695
vn 0.7137 -0.7004 0.0072
vn 0.3905 -0.1473 -0.9087
vn -0.0009 0.1200 -0.9928
vn 0.0416 0.0635 -0.9971
vn 0.3341 -0.2102 -0.9188
vn -0.3802 0.2857 -0.8797
vn -0.6197 0.3879 -0.6823
vn -0.5549 0.4407 -0.7056
vn -0.2814 0.2654 -0.9222
vn -0.7711 0.4994 -0.3949
vn -0.8251 0.5641 -0.0326
vn -0.7441 0.6679 0.0159
vn -0.7134 0.6035 -0.3562
vn -0.7681 0.5517 0.3250
vn -0.5909 0.4547 0.6664
vn -0.5028 0.4888 0.7129
vn -0.6793 0.6294 0.3773
vn -0.3112 0.2392 0.9198
vn -0.0192 -0.0355 0.9992
vn -0.0111 -0.0731 0.9973
vn -0.2673 0.2457 0.9318
vn 0.2371 -0.2843 0.9289
vn 0.4448 -0.4692 0.7629
vn 0.4388 -0.5936 0.6747
vn 0.2344 -0.3726 0.8979
vn 0.6256 -0.5801 0.5216
vn 0.6042 -0.7042 0.3730
# 185 vertex normals

o Box001
g Box001
s 1
f 1//1 2//2 3//3 4//4 
f 2//2 5//5 6//6 3//3 
f 4//4 3//3 7//7 8//8 
f 3//3 6//6 9//9 7//7 
f 10//10 11//11 12//12 13//13 
f 13//13 12//12 14//14 15//15 
f 5//5 10//10 13//13 6//6 
f 6//6 13//13 15//15 9//9 
f 16//16 17//17 18//18 19//19 
f 17//17 20//20 21//21 18//18 
f 19//19 18//18 15//15 14//14 
f 18//18 21//21 9//9 15//15 
f 22//22 23//23 24//24 25//25 
f 25//25 24//24 8//8 7//7 
f 20//20 22//22 25//25 21//21 
f 21//21 25//25 7//7 9//9 
f 11//11 10//10 26//26 27//27 
f 10//10 5//5 28//28 26//26 
f 27//27 26//26 29//29 30//30 
f 26//26 28//28 31//31 29//29 
f 2//2 1//1 32//32 33//33 
f 33//33 32//32 34//34 35//35 
f 5//5 2//2 33//33 28//28 
f 28//28 33//33 35//35 31//31 
f 16//16 19//19 36//36 37//37 
f 19//19 14//14 38//38 36//36 
f 37//37 36//36 39//39 40//40 
f 36//36 38//38 41//41 39//39 
f 12//12 11//11 27//27 42//42 
f 42//42 27//27 30//30 43//43 
f 14//14 12//12 42//42 38//38 
f 38//38 42//42 43//43 41//41 
f 23//23 22//22 44//44 45//45 
f 22//22 20//20 46//46 44//44 
f 45//45 44//44 47//47 48//48 
f 44//44 46//46 49//49 47//47 
f 17//17 16//16 37//37 50//50 
f 50//50 37//37 40//40 51//51 
f 20//20 17//17 50//50 46//46 
f 46//46 50//50 51//51 49//49 
f 1//1 4//4 52//52 32//32 
f 4//4 8//8 53//53 52//52 
f 32//32 52//52 54//54 34//34 
f 52//52 53//53 55//55 54//54 
f 24//24 23//23 45//45 56//56 
f 56//56 45//45 48//48 57//57 
f 8//8 24//24 56//56 53//53 
f 53//53 56//56 57//57 55//55 
s off
f 35//35 34//34 58//58 59//59 
f 31//31 35//35 59//59 60//60 
f 30//30 29//29 61//61 62//62 
f 29//29 31//31 60//60 61//61 
f 43//43 30//30 62//62 63//63 
f 41//41 43//43 63//63 64//64 
f 40//40 39//39 65//65 66//66 
f 39//39 41//41 64//64 65//65 
f 51//51 40//40 66//66 67//67 
f 49//49 51//51 67//67 68//68 
f 48//48 47//47 69//69 70//70 
f 47//47 49//49 68//68 69//69 
f 57//57 48//48 70//70 71//71 
f 55//55 57//57 71//71 72//72 
f 34//34 54//54 73//73 58//58 
f 54//54 55//55 72//72 73//73 
s 4
f 74//74 75//75 76//76 77//77 
f 75//75 78//78 79//79 76//76 
f 80//80 81//81 76//76 79//79 
f 81//81 82//82 77//77 76//76 
f 78//78 83//83 84//84 79//79 
f 83//83 85//85 86//86 84//84 
f 87//87 88//88 84//84 86//86 
f 88//88 80//80 79//79 84//84 
f 85//85 89//89 90//90 86//86 
f 89//89 91//91 92//92 90//90 
f 93//93 94//94 90//90 92//92 
f 94//94 87//87 86//86 90//90 
f 91//91 95//95 96//96 92//92 
f 95//95 97//97 98//98 96//96 
f 99//99 100//100 96//96 98//98 
f 100//100 93//93 92//92 96//96 
f 97//97 101//101 102//102 98//98 
f 101//101 103//103 104//104 102//102 
f 105//105 106//106 102//102 104//104 
f 106//106 99//99 98//98 102//102 
f 103//103 107//107 108//108 104//104 
f 107//107 109//109 110//110 108//108 
f 111//111 112//112 108//108 110//110 
f 112//112 105//105 104//104 108//108 
f 109//109 113//113 114//114 110//110 
f 113//113 115//115 116//116 114//114 
f 117//117 118//118 114//114 116//116 
f 118//118 111//111 110//110 114//114 
f 115//115 119//119 120//120 116//116 
f 119//119 74//74 77//77 120//120 
f 82//82 121//121 120//120 77//77 
f 121//121 117//117 116//116 120//120 
f 82//82 81//81 122//122 123//123 
f 81//81 80//80 124//124 122//122 
f 125//125 126//126 122//122 124//124 
f 126//126 127//127 123//123 122//122 
f 80//80 88//88 128//128 124//124 
f 88//88 87//87 129//129 128//128 
f 130//130 131//131 128//128 129//129 
f 131//131 125//125 124//124 128//128 
f 87//87 94//94 132//132 129//129 
f 94//94 93//93 133//133 132//132 
f 134//134 135//135 132//132 133//133 
f 135//135 130//130 129//129 132//132 
f 93//93 100//100 136//136 133//133 
f 100//100 99//99 137//137 136//136 
f 138//138 139//139 136//136 137//137 
f 139//139 134//134 133//133 136//136 
f 99//99 106//106 140//140 137//137 
f 106//106 105//105 141//141 140//140 
f 142//142 143//143 140//140 141//141 
f 143//143 138//138 137//137 140//140 
f 105//105 112//112 144//144 141//141 
f 112//112 111//111 145//145 144//144 
f 146//146 147//147 144//144 145//145 
f 147//147 142//142 141//141 144//144 
f 111//111 118//118 148//148 145//145 
f 118//118 117//117 149//149 148//148 
f 150//150 151//151 148//148 149//149 
f 151//151 146//146 145//145 148//148 
f 117//117 121//121 152//152 149//149 
f 121//121 82//82 123//123 152//152 
f 127//127 153//153 152//152 123//123 
f 153//153 150//150 149//149 152//152 
f 127//127 126//126 154//154 155//155 
f 126//126 125//125 156//156 154//154 
f 157//157 158//158 154//154 156//156 
f 158//158 159//159 155//155 154//154 
f 125//125 131//131 160//160 156//156 
f 131//131 130//130 161//161 160//160 
f 162//162 163//163 160//160 161//161 
f 163//163 157//157 156//156 160//160 
f 130//130 135//135 164//164 161//161 
f 135//135 134//134 165//165 164//164 
f 166//166 167//167 164//164 165//165 
f 167//167 162//162 161//161 164//164 
f 134//134 139//139 168//168 165//165 
f 139//139 138//138 169//169 168//168 
f 170//170 171//171 168//168 169//169 
f 171//171 166//166 165//165 168//168 
f 138//138 143//143 172//172 169//169 
f 143//143 142//142 173//173 172//172 
f 174//174 175//175 172//172 173//173 
f 175//175 170//170 169//169 172//172 
f 142//142 147//147 176//176 173//173 
f 147//147 146//146 177//177 176//176 
f 178//178 179//179 176//176 177//177 
f 179//179 174//174 173//173 176//176 
f 146//146 151//151 180//180 177//177 
f 151//151 150//150 181//181 180//180 
f 182//182 183//183 180//180 181//181 
f 183//183 178//178 177//177 180//180 
f 150//150 153//153 184//184 181//181 
f 153//153 127//127 155//155 184//184 
f 159//159 185//185 184//184 155//155 
f 185//185 182//182 181//181 184//184 
# 160 polygons

